module gitlab.com/Marsyan/diplom

go 1.20

require (
	github.com/SevereCloud/vksdk/v2 v2.16.0
	golang.org/x/sync v0.0.0-20201020160332-67f06af15bc9
)

require (
	github.com/klauspost/compress v1.16.0 // indirect
	github.com/vmihailenco/msgpack/v5 v5.3.5 // indirect
	github.com/vmihailenco/tagparser/v2 v2.0.0 // indirect
	golang.org/x/text v0.7.0 // indirect
)
